{
	"extensionName": {
		"message": "Bookmarks start page",
		"description": "Name of the extension"
	},
	"extensionDescription": {
		"message": "Show the content of a bookmarks folder when opening a new window or a new tab.",
		"description": "Description of the extension"
	},
	"folderSelection": {
		"message": "Bookmarks folder to display:",
		"description": "Asks the user to choose a folder containing the bookmarks he wants to display on the start page"
	},
	"supportDevelopment": {
		"message": "Support the development of this extension",
		"description": "Link to support the development of the extension"
	}
}
